{
  "ChildViewId": null,
  "ModelFieldId": "c39caacc-1209-46d1-b813-122428f20589",
  "OwnerId": null,
  "ViewId": "82dd0852-c5f6-4276-ac3a-e7d69f141cc1",
  "breakAfter": null,
  "canOrderBy": null,
  "canUpdate": null,
  "class": "is-2",
  "createdAt": "2020-08-28T12:10:49.194Z",
  "deletedAt": null,
  "descriptionColumn": null,
  "filters": null,
  "findType": null,
  "format": null,
  "helperTextLabelKey": null,
  "id": "1f86befd-ddee-42d1-b049-c14ba191bd37",
  "include": null,
  "labelKey": "position",
  "mask": null,
  "order": "6",
  "placeholder": null,
  "required": null,
  "updatedAt": "2020-08-28T12:10:49.194Z",
  "valueColumn": null
}