{
  "ChildViewId": null,
  "ModelFieldId": "9755d504-f4e1-4d86-8777-c08e23d0f16e",
  "OwnerId": null,
  "ViewId": "82dd0852-c5f6-4276-ac3a-e7d69f141cc1",
  "breakAfter": null,
  "canOrderBy": null,
  "canUpdate": null,
  "class": "is-2",
  "createdAt": "2020-08-28T12:10:49.194Z",
  "deletedAt": null,
  "descriptionColumn": null,
  "filters": null,
  "findType": null,
  "format": null,
  "helperTextLabelKey": null,
  "id": "308815cd-9cbb-4af7-9768-4e7843ac263e",
  "include": null,
  "labelKey": "order",
  "mask": null,
  "order": "5",
  "placeholder": null,
  "required": null,
  "updatedAt": "2020-08-28T12:10:49.194Z",
  "valueColumn": null
}