{
  "ChildViewId": null,
  "ModelFieldId": "4331c9c1-3c05-44ca-80b9-fe37040cc5e2",
  "OwnerId": null,
  "ViewId": "75123032-b4dc-44f9-b57f-05142e7290fb",
  "breakAfter": null,
  "canOrderBy": null,
  "canUpdate": null,
  "class": "is-2",
  "createdAt": "2020-11-14T22:24:42.057Z",
  "deletedAt": null,
  "descriptionColumn": null,
  "filters": null,
  "findType": null,
  "format": null,
  "helperTextLabelKey": null,
  "id": "1a39e644-c0a4-4225-afdb-a4c6291d40e8",
  "include": null,
  "labelKey": "ModelId",
  "mask": null,
  "order": "1",
  "placeholder": null,
  "required": null,
  "updatedAt": "2020-11-14T22:24:42.057Z",
  "valueColumn": null
}