{
  "OwnerId": null,
  "ViewId": "b5c5fa48-a214-4aa7-80de-04dcfd4c47cc",
  "class": "is-link",
  "createdAt": "2021-09-17T19:14:47.505Z",
  "deletedAt": null,
  "id": "58a11440-444b-41f8-b348-7c98dfdcaefb",
  "labelKey": "edit",
  "order": "1",
  "params": null,
  "position": null,
  "slug": "/category_form/:id:",
  "type": "navigation",
  "updatedAt": "2021-09-17T19:14:47.505Z"
}