{
  "ModelId": "9c16a857-9808-4de0-9362-48b29f9e5f79",
  "OwnerId": "2cd40d9b-e4b9-41b2-9dc9-c2e9052f4cfc",
  "createdAt": "2020-08-28T12:10:49.050Z",
  "default": null,
  "deletedAt": null,
  "id": "089d21ce-17f8-4a08-a957-fb6c6d15fe41",
  "length": 255,
  "modelFieldType": "DataTypes.STRING",
  "name": "mask",
  "selectOptions": null,
  "targetModel": null,
  "targetModelAlias": null,
  "type": "string",
  "updatedAt": "2021-09-17T17:55:33.927Z"
}