{
  "ModelId": "9c16a857-9808-4de0-9362-48b29f9e5f79",
  "OwnerId": "2cd40d9b-e4b9-41b2-9dc9-c2e9052f4cfc",
  "createdAt": "2020-08-28T12:10:49.050Z",
  "default": null,
  "deletedAt": null,
  "id": "0aec6443-1e77-4cdf-9f73-1809061db246",
  "length": null,
  "modelFieldType": null,
  "name": "ModelFieldId",
  "selectOptions": null,
  "targetModel": "ModelField",
  "targetModelAlias": "ModelField",
  "type": "belongsTo",
  "updatedAt": "2021-09-17T17:55:33.927Z"
}