{
  "ChildViewId": null,
  "ModelFieldId": "54b2254e-fff9-4ec4-ad1a-487d5f0df16a",
  "OwnerId": null,
  "ViewId": "33fb85e4-d1c8-42e5-848e-642c0da2f156",
  "breakAfter": null,
  "canOrderBy": null,
  "canUpdate": false,
  "class": "is-2",
  "createdAt": "2020-12-03T22:31:29.890Z",
  "deletedAt": null,
  "descriptionColumn": null,
  "filters": null,
  "findType": null,
  "format": null,
  "helperTextLabelKey": null,
  "id": "93d37fd7-5efe-40ce-901d-5111a2b3db71",
  "include": null,
  "labelKey": "createdAt",
  "mask": null,
  "order": "1",
  "placeholder": null,
  "required": null,
  "updatedAt": "2020-12-03T22:31:29.890Z",
  "valueColumn": null
}