{
  "OwnerId": "2cd40d9b-e4b9-41b2-9dc9-c2e9052f4cfc",
  "ViewId": "62590233-9f6e-4e61-8ead-56b01f6f095f",
  "class": "is-link",
  "createdAt": "2021-01-30T01:05:35.662Z",
  "deletedAt": null,
  "id": "ff767457-0008-4612-895e-e586fcf88ca3",
  "labelKey": "edit",
  "order": "1",
  "params": null,
  "position": null,
  "slug": "/organization_user_form/:id:",
  "type": "navigation",
  "updatedAt": "2021-04-10T13:11:20.295Z"
}