{
  "ModelId": "790a8062-854b-42a2-b13f-7559a5c6b9b0",
  "OwnerId": "2cd40d9b-e4b9-41b2-9dc9-c2e9052f4cfc",
  "createdAt": "2020-11-14T22:24:41.980Z",
  "default": null,
  "deletedAt": null,
  "id": "4331c9c1-3c05-44ca-80b9-fe37040cc5e2",
  "length": null,
  "modelFieldType": null,
  "name": "ModelId",
  "selectOptions": null,
  "targetModel": "Model",
  "targetModelAlias": "Model",
  "type": "belongsTo",
  "updatedAt": "2020-11-14T22:24:42.027Z"
}