{
  "ModelId": "790a8062-854b-42a2-b13f-7559a5c6b9b0",
  "OwnerId": "2cd40d9b-e4b9-41b2-9dc9-c2e9052f4cfc",
  "createdAt": "2020-11-14T22:24:41.980Z",
  "default": null,
  "deletedAt": null,
  "id": "667e035f-8132-4840-b9fe-ad8fcf639d59",
  "length": null,
  "modelFieldType": "DataTypes.STRING",
  "name": "action",
  "selectOptions": null,
  "targetModel": null,
  "targetModelAlias": null,
  "type": "string",
  "updatedAt": "2020-11-14T22:24:42.027Z"
}