{
  "ChildViewId": null,
  "ModelFieldId": "789277ae-0670-4566-b413-3cd4d79068c0",
  "OwnerId": null,
  "ViewId": "a2e3e138-7e12-46a5-9f3f-cd8046ed31cc",
  "breakAfter": null,
  "canOrderBy": null,
  "canUpdate": null,
  "class": "is-2",
  "createdAt": "2020-11-17T23:11:43.796Z",
  "deletedAt": null,
  "descriptionColumn": null,
  "filters": null,
  "findType": null,
  "format": null,
  "helperTextLabelKey": null,
  "id": "33f3625f-c54c-489f-929e-debc33cdc0de",
  "include": null,
  "labelKey": "rule",
  "mask": null,
  "order": "0",
  "placeholder": null,
  "required": null,
  "updatedAt": "2020-11-17T23:11:43.796Z",
  "valueColumn": null
}