{
  "OwnerId": null,
  "ViewId": "b5c5fa48-a214-4aa7-80de-04dcfd4c47cc",
  "class": "is-primary",
  "createdAt": "2021-09-17T19:14:47.465Z",
  "deletedAt": null,
  "id": "a166e540-42c7-4edb-a5ab-8be4f1be632a",
  "labelKey": "create",
  "order": "1",
  "params": null,
  "position": "top right",
  "slug": "/category_form",
  "type": "navigation",
  "updatedAt": "2021-09-17T19:14:47.465Z"
}