{
  "OwnerId": null,
  "ViewId": "33fb85e4-d1c8-42e5-848e-642c0da2f156",
  "class": "is-primary",
  "createdAt": "2020-12-03T22:31:29.883Z",
  "deletedAt": null,
  "id": "3a48e36a-45c9-4a95-98fe-cdf7bcbbe75d",
  "labelKey": "save",
  "order": "1",
  "params": null,
  "position": "form end",
  "slug": "/menu_section",
  "type": "submit",
  "updatedAt": "2020-12-03T22:31:29.883Z"
}