{
  "OwnerId": "2cd40d9b-e4b9-41b2-9dc9-c2e9052f4cfc",
  "ViewId": "fb4049c6-a4f2-4eef-8c4d-9784695b9b38",
  "class": "is-link",
  "createdAt": "2020-12-03T22:31:29.841Z",
  "deletedAt": null,
  "id": "b53ef701-c746-4a4f-88c8-aa4a17a8d919",
  "labelKey": "create",
  "order": "1",
  "params": null,
  "position": "top right",
  "slug": "/menu_section_form",
  "type": "navigation",
  "updatedAt": "2020-12-03T22:40:35.400Z"
}