{
  "OwnerId": "2cd40d9b-e4b9-41b2-9dc9-c2e9052f4cfc",
  "ViewId": "07ba578b-e244-43dc-be4e-c8244668a303",
  "class": "is-link",
  "createdAt": "2020-08-28T12:10:48.980Z",
  "deletedAt": null,
  "id": "ba9e21a9-a730-41fb-966a-022653d89f14",
  "labelKey": "edit",
  "order": "1",
  "params": null,
  "position": null,
  "slug": "/users_form/:id:",
  "type": "navigation",
  "updatedAt": "2021-04-10T13:05:29.431Z"
}