{
  "OwnerId": null,
  "ViewId": "d16fb811-afe8-4d56-a007-274a9bd21445",
  "class": "is-link",
  "createdAt": "2020-08-28T12:10:49.100Z",
  "deletedAt": null,
  "id": "97a0fe14-0da3-430e-902b-3736adf5112a",
  "labelKey": "create",
  "order": "1",
  "params": null,
  "position": "top right",
  "slug": "/views_form",
  "type": "navigation",
  "updatedAt": "2020-08-28T12:10:49.100Z"
}