{
  "MenuSectionId": "8dcd077b-b723-4b33-8c80-48702c9afdf4",
  "ModelId": "29de1456-e5c8-4086-b05e-68e581fe3734",
  "OwnerId": null,
  "createdAt": "2020-08-28T12:10:49.088Z",
  "deletedAt": null,
  "filters": null,
  "id": "788935e0-e9a6-49b1-ab5c-522d3e3dd9aa",
  "include": [
    "ModelFields"
  ],
  "key": "list-models",
  "labelKey": "models",
  "showOnMenu": true,
  "slug": "/models",
  "type": "ListView",
  "updatedAt": "2020-12-25T22:00:43.810Z"
}