{
  "ModelId": "805d3256-cfbc-4df2-be79-1177e6eabeb1",
  "OwnerId": "2cd40d9b-e4b9-41b2-9dc9-c2e9052f4cfc",
  "createdAt": "2020-11-19T09:15:58.375Z",
  "default": null,
  "deletedAt": null,
  "id": "7a55a660-7a97-40b6-a1d3-49b71400b840",
  "length": null,
  "modelFieldType": "DataTypes.DATE",
  "name": "updatedAt",
  "selectOptions": null,
  "targetModel": null,
  "targetModelAlias": null,
  "type": "datetime",
  "updatedAt": "2020-12-03T21:47:21.379Z"
}