{
  "ChildViewId": null,
  "ModelFieldId": "6a59d17d-f85e-4633-9d2b-2d9a8d4dbbe2",
  "OwnerId": null,
  "ViewId": "7e490e4d-361f-4cca-8ae4-0be222e55dbb",
  "breakAfter": null,
  "canOrderBy": null,
  "canUpdate": null,
  "class": "is-2",
  "createdAt": "2021-09-17T19:29:03.757Z",
  "deletedAt": null,
  "descriptionColumn": null,
  "filters": null,
  "findType": null,
  "format": null,
  "helperTextLabelKey": null,
  "id": "3cb96444-84ea-48b5-ba94-51655d2cec63",
  "include": null,
  "labelKey": "CategoryId",
  "mask": null,
  "order": "1",
  "placeholder": null,
  "required": null,
  "updatedAt": "2021-09-17T19:29:03.757Z",
  "valueColumn": null
}