{
  "OwnerId": null,
  "ViewId": "d16fb811-afe8-4d56-a007-274a9bd21445",
  "class": "is-link",
  "createdAt": "2020-08-28T12:10:49.111Z",
  "deletedAt": null,
  "id": "d2f0b07e-3478-445c-bd42-b9565b5a90f5",
  "labelKey": "edit",
  "order": "1",
  "params": null,
  "position": null,
  "slug": "/views_form/:id:",
  "type": "navigation",
  "updatedAt": "2020-08-28T12:10:49.111Z"
}