{
  "OwnerId": "2cd40d9b-e4b9-41b2-9dc9-c2e9052f4cfc",
  "ViewId": "c897aeb3-ea2b-412c-85eb-5ca4467368e1",
  "class": "is-primary",
  "createdAt": "2020-08-28T12:10:48.969Z",
  "deletedAt": null,
  "id": "e60cc852-72bf-490c-b702-3239cdb0bbbe",
  "labelKey": "save",
  "order": "1",
  "params": null,
  "position": "form end",
  "slug": "/users",
  "type": "submit",
  "updatedAt": "2021-01-23T16:29:25.661Z"
}