{
  "ChildViewId": null,
  "ModelFieldId": "fb204033-9423-4d5e-997c-2da9aa31f702",
  "OwnerId": null,
  "ViewId": "b5c5fa48-a214-4aa7-80de-04dcfd4c47cc",
  "breakAfter": null,
  "canOrderBy": null,
  "canUpdate": false,
  "class": "is-2",
  "createdAt": "2021-09-17T19:14:47.555Z",
  "deletedAt": null,
  "descriptionColumn": null,
  "filters": null,
  "findType": null,
  "format": null,
  "helperTextLabelKey": null,
  "id": "2f62b820-4c5a-421f-8afb-4b44cb27b5df",
  "include": null,
  "labelKey": "OwnerId",
  "mask": null,
  "order": "2",
  "placeholder": null,
  "required": null,
  "updatedAt": "2021-09-17T19:14:47.555Z",
  "valueColumn": null
}