{
  "ChildViewId": null,
  "ModelFieldId": "cc68cf7f-0edb-4ca2-a197-c73bfc37b923",
  "OwnerId": null,
  "ViewId": "f60c4688-806f-4542-9d52-7c05321b3a0a",
  "breakAfter": null,
  "canOrderBy": null,
  "canUpdate": false,
  "class": "is-2",
  "createdAt": "2021-09-17T19:14:47.555Z",
  "deletedAt": null,
  "descriptionColumn": null,
  "filters": null,
  "findType": null,
  "format": null,
  "helperTextLabelKey": null,
  "id": "561f2e88-19e5-4a11-bf57-c7e159ffddde",
  "include": null,
  "labelKey": "createdAt",
  "mask": null,
  "order": "2",
  "placeholder": null,
  "required": null,
  "updatedAt": "2021-09-17T19:14:47.555Z",
  "valueColumn": null
}