{
  "ChildViewId": null,
  "ModelFieldId": "b5220029-5ee0-4200-acaf-0bee1a06512d",
  "OwnerId": null,
  "ViewId": "7ef822ad-1760-4d40-b4af-63d79613e0a2",
  "breakAfter": null,
  "canOrderBy": null,
  "canUpdate": null,
  "class": "is-2",
  "createdAt": "2021-01-30T01:05:35.728Z",
  "deletedAt": null,
  "descriptionColumn": null,
  "filters": null,
  "findType": null,
  "format": null,
  "helperTextLabelKey": null,
  "id": "b76d1a13-3684-4d4c-b7f9-689c2320be56",
  "include": null,
  "labelKey": "OrganizationId",
  "mask": null,
  "order": "0",
  "placeholder": null,
  "required": null,
  "updatedAt": "2021-01-30T01:05:35.728Z",
  "valueColumn": null
}