{
  "ModelId": "20c8321e-abbd-4602-8ec6-d385c2d6784b",
  "OwnerId": "2cd40d9b-e4b9-41b2-9dc9-c2e9052f4cfc",
  "createdAt": "2021-09-17T19:32:13.341Z",
  "default": null,
  "deletedAt": null,
  "id": "2d4a638e-f02a-40f3-9774-d798836ac36f",
  "length": null,
  "modelFieldType": "DataTypes.STRING",
  "name": "repeats",
  "selectOptions": [
    {
      "value": "monthly",
      "labelKey": "repeatsMonthly"
    }
  ],
  "targetModel": null,
  "targetModelAlias": null,
  "type": "string",
  "updatedAt": "2021-09-17T19:32:13.438Z"
}