{
  "ModelId": "20c8321e-abbd-4602-8ec6-d385c2d6784b",
  "OwnerId": "2cd40d9b-e4b9-41b2-9dc9-c2e9052f4cfc",
  "createdAt": "2021-09-17T19:29:03.595Z",
  "default": null,
  "deletedAt": null,
  "id": "3f898808-5570-4d54-b431-83aa1abd2b36",
  "length": null,
  "modelFieldType": "DataTypes.STRING",
  "name": "description",
  "selectOptions": null,
  "targetModel": null,
  "targetModelAlias": null,
  "type": "string",
  "updatedAt": "2021-09-17T19:32:13.410Z"
}