{
  "ModelId": "20c8321e-abbd-4602-8ec6-d385c2d6784b",
  "OwnerId": "2cd40d9b-e4b9-41b2-9dc9-c2e9052f4cfc",
  "createdAt": "2021-09-17T19:29:03.601Z",
  "default": "false",
  "deletedAt": null,
  "id": "562f1ed1-f1e6-4296-855a-c767913e0643",
  "length": null,
  "modelFieldType": "DataTypes.BOOLEAN",
  "name": "paid",
  "selectOptions": null,
  "targetModel": null,
  "targetModelAlias": null,
  "type": "boolean",
  "updatedAt": "2021-09-17T19:32:13.437Z"
}