{
  "ModelId": "fc30b20c-aeb5-4790-a694-87b874cbaf98",
  "OwnerId": "2cd40d9b-e4b9-41b2-9dc9-c2e9052f4cfc",
  "createdAt": "2020-11-11T12:12:13.674Z",
  "default": null,
  "deletedAt": null,
  "id": "bc468fd3-6706-4fd5-b6a5-c4cae6f6cfb5",
  "length": null,
  "modelFieldType": null,
  "name": "OwnerId",
  "selectOptions": null,
  "targetModel": "User",
  "targetModelAlias": "Owner",
  "type": "belongsTo",
  "updatedAt": "2021-04-10T13:06:41.833Z"
}