{
  "ChildViewId": null,
  "ModelFieldId": "b2852d05-0b22-4b3c-97ab-93c1f1f21c69",
  "OwnerId": "2cd40d9b-e4b9-41b2-9dc9-c2e9052f4cfc",
  "ViewId": "8934a4e8-58f9-44ca-85ac-97843f634929",
  "breakAfter": false,
  "canOrderBy": false,
  "canUpdate": true,
  "class": "is-2",
  "createdAt": "2020-08-28T12:10:49.182Z",
  "deletedAt": null,
  "descriptionColumn": null,
  "filters": null,
  "findType": "",
  "format": null,
  "helperTextLabelKey": "",
  "id": "86adb468-7957-4d2a-9ca9-0f6e0d8f1d72",
  "include": null,
  "labelKey": "canUpdate",
  "mask": null,
  "order": "3",
  "placeholder": null,
  "required": false,
  "updatedAt": "2021-09-17T18:08:38.287Z",
  "valueColumn": null
}