{
  "ChildViewId": null,
  "ModelFieldId": "a0f689f7-f614-49db-8a29-94ec77979a97",
  "OwnerId": "2cd40d9b-e4b9-41b2-9dc9-c2e9052f4cfc",
  "ViewId": "8934a4e8-58f9-44ca-85ac-97843f634929",
  "breakAfter": false,
  "canOrderBy": false,
  "canUpdate": true,
  "class": "is-2",
  "createdAt": "2020-08-28T12:10:49.182Z",
  "deletedAt": null,
  "descriptionColumn": null,
  "filters": null,
  "findType": "",
  "format": null,
  "helperTextLabelKey": "",
  "id": "d2cfcb97-6dcb-46a8-b3ec-7c81c8b838b2",
  "include": null,
  "labelKey": "format",
  "mask": null,
  "order": "10",
  "placeholder": null,
  "required": false,
  "updatedAt": "2021-09-17T18:08:38.302Z",
  "valueColumn": null
}