{
  "OwnerId": "2cd40d9b-e4b9-41b2-9dc9-c2e9052f4cfc",
  "ViewId": "28e36655-1225-45dd-8060-4a4f455a6fb4",
  "class": "is-primary",
  "createdAt": "2020-08-28T12:10:49.100Z",
  "deletedAt": null,
  "id": "af418ebd-4eef-4259-9891-f0ce20f52419",
  "labelKey": "save",
  "order": "1",
  "params": null,
  "position": "form end",
  "slug": "/models",
  "type": "submit",
  "updatedAt": "2020-12-25T22:09:15.174Z"
}