{
  "OwnerId": "2cd40d9b-e4b9-41b2-9dc9-c2e9052f4cfc",
  "ViewId": "788935e0-e9a6-49b1-ab5c-522d3e3dd9aa",
  "class": "is-link",
  "createdAt": "2020-08-28T12:10:49.100Z",
  "deletedAt": null,
  "id": "baf6244c-0497-4d34-9b81-391a40d33037",
  "labelKey": "create",
  "order": "1",
  "params": null,
  "position": "top right",
  "slug": "/models_form",
  "type": "navigation",
  "updatedAt": "2020-12-25T22:00:43.860Z"
}