{
  "ChildViewId": null,
  "ModelFieldId": "53cf81c8-8953-4f1e-9b29-b31624b36a18",
  "OwnerId": null,
  "ViewId": "a8a23a6e-a003-46f5-8b2f-9854b3583d75",
  "breakAfter": null,
  "canOrderBy": null,
  "canUpdate": null,
  "class": "is-2",
  "createdAt": "2020-08-29T14:10:34.770Z",
  "deletedAt": null,
  "descriptionColumn": null,
  "filters": null,
  "findType": null,
  "format": null,
  "helperTextLabelKey": null,
  "id": "52938d6b-1b03-4d54-ad17-4a430004ac23",
  "include": null,
  "labelKey": "reference",
  "mask": null,
  "order": "1",
  "placeholder": null,
  "required": null,
  "updatedAt": "2020-08-29T14:24:22.615Z",
  "valueColumn": null
}