{
  "ChildViewId": null,
  "ModelFieldId": "4798e53d-79a5-4ece-88af-aa3f19936cf6",
  "OwnerId": null,
  "ViewId": "e7565785-4b86-4e3c-8bc2-6a628dabbdb3",
  "breakAfter": null,
  "canOrderBy": null,
  "canUpdate": null,
  "class": "is-2",
  "createdAt": "2020-08-29T14:10:34.770Z",
  "deletedAt": null,
  "descriptionColumn": null,
  "filters": null,
  "findType": null,
  "format": null,
  "helperTextLabelKey": null,
  "id": "64610ba8-d23c-47f9-bb66-a19ea45a8fbf",
  "include": null,
  "labelKey": "labelKey",
  "mask": null,
  "order": "0",
  "placeholder": null,
  "required": null,
  "updatedAt": "2020-08-29T14:23:40.460Z",
  "valueColumn": null
}