{
  "ChildViewId": null,
  "ModelFieldId": "b1d7d434-ab78-49cc-b39c-c469ab66f7da",
  "OwnerId": "2cd40d9b-e4b9-41b2-9dc9-c2e9052f4cfc",
  "ViewId": "72e232e5-c57a-4002-9021-228e76b11334",
  "breakAfter": false,
  "canOrderBy": false,
  "canUpdate": true,
  "class": "is-4",
  "createdAt": "2020-12-06T19:54:00.613Z",
  "deletedAt": null,
  "descriptionColumn": null,
  "filters": null,
  "findType": null,
  "format": null,
  "helperTextLabelKey": "",
  "id": "17eba208-34c2-472c-abf6-3d5af4735e37",
  "include": null,
  "labelKey": "photo",
  "mask": null,
  "order": "3",
  "placeholder": null,
  "required": false,
  "updatedAt": "2021-01-23T16:29:09.525Z",
  "valueColumn": null
}