{
  "ChildViewId": null,
  "ModelFieldId": "f6f2c905-7b70-4646-80a0-662c56d4b636",
  "OwnerId": "2cd40d9b-e4b9-41b2-9dc9-c2e9052f4cfc",
  "ViewId": "788935e0-e9a6-49b1-ab5c-522d3e3dd9aa",
  "breakAfter": true,
  "canOrderBy": false,
  "canUpdate": false,
  "class": "is-2",
  "createdAt": "2020-08-28T12:10:49.122Z",
  "deletedAt": null,
  "descriptionColumn": null,
  "filters": null,
  "findType": null,
  "format": null,
  "helperTextLabelKey": "",
  "id": "9a23d865-990f-4d37-bb20-f35ca03d9f03",
  "include": null,
  "labelKey": "ModelFields",
  "mask": null,
  "order": "2",
  "placeholder": null,
  "required": false,
  "updatedAt": "2020-12-25T22:00:43.856Z",
  "valueColumn": null
}