{
  "ModelId": "d0ff17b6-1af4-407f-87ab-fa49709aca0e",
  "OwnerId": null,
  "createdAt": "2020-08-28T04:36:54.594Z",
  "default": null,
  "deletedAt": null,
  "id": "102720cc-aa16-4d11-8314-fba96e2d3fda",
  "length": null,
  "modelFieldType": "",
  "name": "User",
  "selectOptions": null,
  "targetModel": "User",
  "targetModelAlias": "User",
  "type": "belongsTo",
  "updatedAt": "2020-08-28T04:36:54.683Z"
}