{
  "ModelId": "d0ff17b6-1af4-407f-87ab-fa49709aca0e",
  "OwnerId": null,
  "createdAt": "2020-08-26T23:54:16.134Z",
  "default": null,
  "deletedAt": null,
  "id": "2dc02bf6-7345-46f5-b432-90dee358ac0f",
  "length": null,
  "modelFieldType": "DataTypes.STRING",
  "name": "path",
  "selectOptions": null,
  "targetModel": null,
  "targetModelAlias": null,
  "type": "string",
  "updatedAt": "2020-08-28T04:36:54.653Z"
}