{
  "ModelId": "d0ff17b6-1af4-407f-87ab-fa49709aca0e",
  "OwnerId": null,
  "createdAt": "2020-08-26T23:54:16.144Z",
  "default": null,
  "deletedAt": null,
  "id": "b8219adb-a553-45d9-a3bd-1b9709f3c7c6",
  "length": null,
  "modelFieldType": "DataTypes.STRING",
  "name": "modelName",
  "selectOptions": null,
  "targetModel": null,
  "targetModelAlias": null,
  "type": "string",
  "updatedAt": "2020-08-28T04:36:54.653Z"
}