{
  "ModelId": "d0ff17b6-1af4-407f-87ab-fa49709aca0e",
  "OwnerId": null,
  "createdAt": "2020-08-26T23:54:16.170Z",
  "default": null,
  "deletedAt": null,
  "id": "f3b00d4b-0587-4012-bddb-a8eeee7114c8",
  "length": null,
  "modelFieldType": "DataTypes.DATE",
  "name": "deletedAt",
  "selectOptions": null,
  "targetModel": null,
  "targetModelAlias": null,
  "type": "datetime",
  "updatedAt": "2020-08-28T04:36:54.676Z"
}