{
  "ChildViewId": null,
  "ModelFieldId": "ff509dfe-7498-4dff-a817-d7b6f0cca79f",
  "OwnerId": "2cd40d9b-e4b9-41b2-9dc9-c2e9052f4cfc",
  "ViewId": "6460f9f3-0c77-4f38-8eba-e39cb5668e64",
  "breakAfter": false,
  "canOrderBy": false,
  "canUpdate": false,
  "class": "is-2",
  "createdAt": "2020-11-14T22:13:53.972Z",
  "deletedAt": null,
  "descriptionColumn": null,
  "filters": null,
  "findType": null,
  "format": null,
  "helperTextLabelKey": "",
  "id": "8518186c-572b-42cf-99c4-612ee2259b98",
  "include": null,
  "labelKey": "ViewId",
  "mask": null,
  "order": "1",
  "placeholder": null,
  "required": false,
  "updatedAt": "2021-01-23T15:42:40.912Z",
  "valueColumn": null
}