{
  "ChildViewId": null,
  "ModelFieldId": "2d462491-90d5-4832-b7c7-87ca27ca1c76",
  "OwnerId": null,
  "ViewId": "d16fb811-afe8-4d56-a007-274a9bd21445",
  "breakAfter": null,
  "canOrderBy": null,
  "canUpdate": null,
  "class": null,
  "createdAt": "2020-08-28T12:10:49.156Z",
  "deletedAt": null,
  "descriptionColumn": null,
  "filters": null,
  "findType": null,
  "format": null,
  "helperTextLabelKey": null,
  "id": "1ce522ca-9789-4321-9038-4ccdf4c1462b",
  "include": null,
  "labelKey": "key",
  "mask": null,
  "order": "1",
  "placeholder": null,
  "required": null,
  "updatedAt": "2020-08-28T12:10:49.156Z",
  "valueColumn": null
}