{
  "ChildViewId": null,
  "ModelFieldId": "3186c2a0-c517-4743-adb9-6f561e5cc6ac",
  "OwnerId": null,
  "ViewId": "d16fb811-afe8-4d56-a007-274a9bd21445",
  "breakAfter": null,
  "canOrderBy": null,
  "canUpdate": null,
  "class": null,
  "createdAt": "2020-08-28T12:10:49.156Z",
  "deletedAt": null,
  "descriptionColumn": null,
  "filters": null,
  "findType": null,
  "format": null,
  "helperTextLabelKey": null,
  "id": "ae3a1fc4-9a4c-47e4-87b3-37850359be26",
  "include": null,
  "labelKey": "labelKey",
  "mask": null,
  "order": "2",
  "placeholder": null,
  "required": null,
  "updatedAt": "2020-08-28T12:10:49.156Z",
  "valueColumn": null
}