{
  "OwnerId": null,
  "ViewId": "65d0efff-ea3f-446d-9908-aff12504dfd8",
  "class": "is-link is-light",
  "createdAt": "2021-01-30T01:04:33.538Z",
  "deletedAt": null,
  "id": "c1e7335a-ab2b-4eb3-b666-9d2fba9c2d8f",
  "labelKey": "back",
  "order": "1",
  "params": null,
  "position": "top left",
  "slug": "/organization",
  "type": "navigation",
  "updatedAt": "2021-01-30T01:04:33.538Z"
}