{
  "MenuSectionId": "8dcd077b-b723-4b33-8c80-48702c9afdf4",
  "ModelId": "fc30b20c-aeb5-4790-a694-87b874cbaf98",
  "OwnerId": "2cd40d9b-e4b9-41b2-9dc9-c2e9052f4cfc",
  "createdAt": "2020-12-06T19:54:00.578Z",
  "deletedAt": null,
  "filters": null,
  "id": "72e232e5-c57a-4002-9021-228e76b11334",
  "include": null,
  "key": "user-profile",
  "labelKey": "Profile",
  "showOnMenu": false,
  "slug": "/profile",
  "type": "FormView",
  "updatedAt": "2021-01-23T16:29:09.468Z"
}